^C:\USERS\SZYMON\DESKTOP\PAMSI\GRAFY\GRAFY\DEBUG\KRAWEDZ.OBJ|C:\USERS\SZYMON\DESKTOP\PAMSI\GRAFY\GRAFY\DEBUG\LIST.OBJ|C:\USERS\SZYMON\DESKTOP\PAMSI\GRAFY\GRAFY\DEBUG\ŹRÓDŁO.OBJ
C:\USERS\SZYMON\DESKTOP\PAMSI\GRAFY\DEBUG\GRAFY.ILK
C:\USERS\SZYMON\DESKTOP\PAMSI\GRAFY\DEBUG\GRAFY.EXE
C:\USERS\SZYMON\DESKTOP\PAMSI\GRAFY\DEBUG\GRAFY.PDB
^C:\USERS\SZYMON\DESKTOP\PAMSI\GRAFY_TABLICA_SASIECTWA\GRAFY\DEBUG\KRAWEDZ.OBJ|C:\USERS\SZYMON\DESKTOP\PAMSI\GRAFY_TABLICA_SASIECTWA\GRAFY\DEBUG\LISTA.OBJ|C:\USERS\SZYMON\DESKTOP\PAMSI\GRAFY_TABLICA_SASIECTWA\GRAFY\DEBUG\ŹRÓDŁO.OBJ
C:\USERS\SZYMON\DESKTOP\PAMSI\GRAFY_TABLICA_SASIECTWA\DEBUG\GRAFY.ILK
C:\USERS\SZYMON\DESKTOP\PAMSI\GRAFY_TABLICA_SASIECTWA\DEBUG\GRAFY.EXE
C:\USERS\SZYMON\DESKTOP\PAMSI\GRAFY_TABLICA_SASIECTWA\DEBUG\GRAFY.PDB
